[
    {
        "Territory":"1",
        "Target":false,
        "Rep Name":"test",
        "Team Name":"team 1",
        "Last Call Date":"26/12/2020",
        "YTD Calls":"5"
    },
    {
        "Territory":"2",
        "Target":true,
        "Rep Name":"test",
        "Team Name":"team 2",
        "Last Call Date":"26/12/2020",
        "YTD Calls":"5"
    },
    {
        "Territory":"3",
        "Target":false,
        "Rep Name":"test",
        "Team Name":"team 3",
        "Last Call Date":"26/12/2020",
        "YTD Calls":"5"
    },
    {
        "Territory":"4",
        "Target":false,
        "Rep Name":"test",
        "Team Name":"team 4",
        "Last Call Date":"26/12/2020",
        "YTD Calls":"5"
    },
    {
        "Territory":"5",
        "Target":false,
        "Rep Name":"test",
        "Team Name":"team 5",
        "Last Call Date":"26/12/2020",
        "YTD Calls":"5"
    },
    {
        "Territory":"1",
        "Target":false,
        "Rep Name":"test",
        "Team Name":"team 1",
        "Last Call Date":"26/12/2020",
        "YTD Calls":"5"
    },
    {
        "Territory":"2",
        "Target":false,
        "Rep Name":"test",
        "Team Name":"team 2",
        "Last Call Date":"26/12/2020",
        "YTD Calls":"5"
    },
    {
        "Territory":"3",
        "Target":false,
        "Rep Name":"test",
        "Team Name":"team 3",
        "Last Call Date":"26/12/2020",
        "YTD Calls":"5"
    },
    {
        "Territory":"4",
        "Target":false,
        "Rep Name":"test",
        "Team Name":"team 4",
        "Last Call Date":"26/12/2020",
        "YTD Calls":"5"
    },
    {
        "Territory":"5",
        "Target":false,
        "Rep Name":"test",
        "Team Name":"team 5",
        "Last Call Date":"26/12/2020",
        "YTD Calls":"5"
    },
    {
        "Territory":"1",
        "Target":false,
        "Rep Name":"test",
        "Team Name":"team 1",
        "Last Call Date":"26/12/2020",
        "YTD Calls":"5"
    },
    {
        "Territory":"2",
        "Target":false,
        "Rep Name":"test",
        "Team Name":"team 2",
        "Last Call Date":"26/12/2020",
        "YTD Calls":"5"
    },
    {
        "Territory":"3",
        "Target":false,
        "Rep Name":"test",
        "Team Name":"team 3",
        "Last Call Date":"26/12/2020",
        "YTD Calls":"5"
    },
    {
        "Territory":"4",
        "Target":false,
        "Rep Name":"test",
        "Team Name":"team 4",
        "Last Call Date":"26/12/2020",
        "YTD Calls":"5"
    },
    {
        "Territory":"5",
        "Target":false,
        "Rep Name":"test",
        "Team Name":"team 5",
        "Last Call Date":"26/12/2020",
        "YTD Calls":"5"
    },{
        "Territory":"1",
        "Target":false,
        "Rep Name":"test",
        "Team Name":"team 1",
        "Last Call Date":"26/12/2020",
        "YTD Calls":"5"
    },
    {
        "Territory":"2",
        "Target":false,
        "Rep Name":"test",
        "Team Name":"team 2",
        "Last Call Date":"26/12/2020",
        "YTD Calls":"5"
    },
    {
        "Territory":"3",
        "Target":false,
        "Rep Name":"test",
        "Team Name":"team 3",
        "Last Call Date":"26/12/2020",
        "YTD Calls":"5"
    },
    {
        "Territory":"4",
        "Target":false,
        "Rep Name":"test",
        "Team Name":"team 4",
        "Last Call Date":"26/12/2020",
        "YTD Calls":"5"
    },
    {
        "Territory":"5",
        "Target":false,
        "Rep Name":"test",
        "Team Name":"team 5",
        "Last Call Date":"26/12/2020",
        "YTD Calls":"5"
    },
    {
        "Territory":"1",
        "Target":false,
        "Rep Name":"test",
        "Team Name":"team 1",
        "Last Call Date":"26/12/2020",
        "YTD Calls":"5"
    },
    {
        "Territory":"2",
        "Target":false,
        "Rep Name":"test",
        "Team Name":"team 2",
        "Last Call Date":"26/12/2020",
        "YTD Calls":"5"
    },
    {
        "Territory":"3",
        "Target":false,
        "Rep Name":"test",
        "Team Name":"team 3",
        "Last Call Date":"26/12/2020",
        "YTD Calls":"5"
    },
    {
        "Territory":"4",
        "Target":false,
        "Rep Name":"test",
        "Team Name":"team 4",
        "Last Call Date":"26/12/2020",
        "YTD Calls":"5"
    },
    {
        "Territory":"5",
        "Target":false,
        "Rep Name":"test",
        "Team Name":"team 5",
        "Last Call Date":"26/12/2020",
        "YTD Calls":"5"
    }
]